<svg xmlns="http://www.w3.org/2000/svg" width="267" height="44.768" viewBox="0 0 267 44.768">
  <g id="Grupo_50" data-name="Grupo 50" transform="translate(-358.15 -126.273)">
    <g id="Grupo_8" data-name="Grupo 8" transform="translate(426.35 160.854)">
      <path id="Trazado_38" data-name="Trazado 38" d="M401.417,157.33a.225.225,0,0,1-.177-.078.228.228,0,0,1-.044-.2l1.535-7.237a.327.327,0,0,1,.124-.2.334.334,0,0,1,.211-.078h1.471a.234.234,0,0,1,.189.078.231.231,0,0,1,.044.2l-1.247,5.834h3.362a.225.225,0,0,1,.189.084.216.216,0,0,1,.035.206l-.234,1.112a.325.325,0,0,1-.117.2.334.334,0,0,1-.217.078Z" transform="translate(-401.189 -147.254)" fill="#fff"/>
      <path id="Trazado_39" data-name="Trazado 39" d="M408.434,157.482a4.35,4.35,0,0,1-1.3-.189,2.66,2.66,0,0,1-1.014-.567,2.1,2.1,0,0,1-.585-.948,2.938,2.938,0,0,1-.049-1.325c.059-.319.124-.639.195-.957s.143-.642.217-.968a4.074,4.074,0,0,1,1.325-2.283,3.97,3.97,0,0,1,2.583-.778,4.2,4.2,0,0,1,1.3.193,2.694,2.694,0,0,1,1.013.585,2.136,2.136,0,0,1,.589.959,2.839,2.839,0,0,1,.04,1.325c-.052.326-.114.648-.184.968s-.144.639-.217.957a4.016,4.016,0,0,1-1.336,2.277A4.057,4.057,0,0,1,408.434,157.482Zm.144-1.6a1.677,1.677,0,0,0,1.057-.357,1.971,1.971,0,0,0,.647-1.136q.121-.49.217-.924t.173-.9a1.412,1.412,0,0,0-.135-1.136,1.046,1.046,0,0,0-.879-.357,1.643,1.643,0,0,0-1.051.357,1.982,1.982,0,0,0-.64,1.136q-.124.466-.217.9t-.185.924a1.486,1.486,0,0,0,.135,1.136A1.031,1.031,0,0,0,408.579,155.88Z" transform="translate(-398.708 -147.295)" fill="#fff"/>
      <path id="Trazado_40" data-name="Trazado 40" d="M413.405,157.482a3.8,3.8,0,0,1-1.742-.35,1.973,1.973,0,0,1-.963-1.024,2.966,2.966,0,0,1-.112-1.643c.06-.319.128-.659.208-1.019s.154-.7.228-1.028a3.8,3.8,0,0,1,.8-1.6,3.673,3.673,0,0,1,1.409-1,4.9,4.9,0,0,1,1.876-.344,4.478,4.478,0,0,1,1.436.2,2.668,2.668,0,0,1,.97.551,1.922,1.922,0,0,1,.512.757,1.526,1.526,0,0,1,.067.813.244.244,0,0,1-.1.166.3.3,0,0,1-.195.068h-1.626a.3.3,0,0,1-.166-.04.265.265,0,0,1-.089-.117,1.126,1.126,0,0,0-.144-.35.937.937,0,0,0-.345-.317,1.352,1.352,0,0,0-.669-.135,1.713,1.713,0,0,0-1.063.334,1.821,1.821,0,0,0-.618,1.068c-.074.32-.146.64-.217.963s-.135.648-.195.975a1.328,1.328,0,0,0,.173,1.125,1.2,1.2,0,0,0,.941.345,2.06,2.06,0,0,0,.773-.146,1.534,1.534,0,0,0,.618-.45,1.683,1.683,0,0,0,.345-.786l.044-.211h-1.046a.212.212,0,0,1-.184-.084.257.257,0,0,1-.04-.206l.179-.824a.34.34,0,0,1,.122-.206.325.325,0,0,1,.211-.084h2.817a.2.2,0,0,1,.177.084.271.271,0,0,1,.035.206l-.268,1.269a3.6,3.6,0,0,1-.786,1.637,3.805,3.805,0,0,1-1.451,1.041A4.975,4.975,0,0,1,413.405,157.482Z" transform="translate(-395.731 -147.295)" fill="#fff"/>
      <path id="Trazado_41" data-name="Trazado 41" d="M415.552,158.172a.24.24,0,0,1-.19-.078.233.233,0,0,1-.044-.2l1.548-7.237a.318.318,0,0,1,.122-.2.337.337,0,0,1,.211-.078h1.5a.225.225,0,0,1,.179.078.231.231,0,0,1,.044.2l-1.548,7.237a.332.332,0,0,1-.117.2.324.324,0,0,1-.206.078Zm1.881-8.351c-.119,0-.171-.051-.155-.155a.232.232,0,0,1,.089-.155l1.247-1.2a.819.819,0,0,1,.222-.173.607.607,0,0,1,.235-.04h1.559a.16.16,0,0,1,.133.057.185.185,0,0,1,.033.144.242.242,0,0,1-.089.155l-1.737,1.214a1.181,1.181,0,0,1-.206.117.687.687,0,0,1-.25.038Z" transform="translate(-392.933 -148.096)" fill="#fff"/>
      <path id="Trazado_42" data-name="Trazado 42" d="M420.614,157.482a4.514,4.514,0,0,1-1.819-.312,2.1,2.1,0,0,1-1.014-.829,1.624,1.624,0,0,1-.217-1.1.371.371,0,0,1,.1-.162.237.237,0,0,1,.173-.071h1.424a.356.356,0,0,1,.224.054.871.871,0,0,1,.133.146.824.824,0,0,0,.179.323.934.934,0,0,0,.372.25,1.659,1.659,0,0,0,.6.1,2.276,2.276,0,0,0,1.035-.2.781.781,0,0,0,.456-.545.406.406,0,0,0-.082-.407,1.332,1.332,0,0,0-.523-.29,9.788,9.788,0,0,0-1-.261,4.4,4.4,0,0,1-1.336-.494,1.727,1.727,0,0,1-.73-.813,2,2,0,0,1-.06-1.185,2.544,2.544,0,0,1,1.1-1.621,4,4,0,0,1,2.283-.594,3.826,3.826,0,0,1,1.285.2,2.878,2.878,0,0,1,.941.534,2.105,2.105,0,0,1,.545.707,1.275,1.275,0,0,1,.111.73.261.261,0,0,1-.089.162.256.256,0,0,1-.177.071H423.03a.4.4,0,0,1-.195-.044.36.36,0,0,1-.139-.144.527.527,0,0,0-.255-.429,1.147,1.147,0,0,0-.68-.184,1.7,1.7,0,0,0-.8.173.759.759,0,0,0-.4.529.459.459,0,0,0,.062.39.921.921,0,0,0,.445.288,7.382,7.382,0,0,0,.908.257,5.106,5.106,0,0,1,1.536.507,1.654,1.654,0,0,1,.753.8,2,2,0,0,1,.049,1.169,2.579,2.579,0,0,1-1.185,1.719A4.718,4.718,0,0,1,420.614,157.482Z" transform="translate(-391.628 -147.295)" fill="#fff"/>
      <path id="Trazado_43" data-name="Trazado 43" d="M423.841,157.33a.242.242,0,0,1-.19-.078.233.233,0,0,1-.044-.2l1.236-5.766h-1.981a.219.219,0,0,1-.179-.084.228.228,0,0,1-.044-.195l.257-1.192a.335.335,0,0,1,.334-.277h5.988a.221.221,0,0,1,.185.078.246.246,0,0,1,.038.2l-.257,1.192a.348.348,0,0,1-.116.195.322.322,0,0,1-.217.084h-1.982l-1.225,5.766a.325.325,0,0,1-.117.2.338.338,0,0,1-.217.078Z" transform="translate(-388.653 -147.254)" fill="#fff"/>
      <path id="Trazado_44" data-name="Trazado 44" d="M426.813,157.33a.239.239,0,0,1-.189-.078.228.228,0,0,1-.044-.2l1.547-7.237a.32.32,0,0,1,.124-.2.334.334,0,0,1,.211-.078h1.5a.222.222,0,0,1,.177.078.231.231,0,0,1,.044.2l-1.548,7.237a.335.335,0,0,1-.322.279Z" transform="translate(-386.349 -147.254)" fill="#fff"/>
      <path id="Trazado_45" data-name="Trazado 45" d="M432.047,157.482a4.6,4.6,0,0,1-1.364-.189,2.515,2.515,0,0,1-1.008-.574,2.043,2.043,0,0,1-.556-.946,3.029,3.029,0,0,1-.033-1.309q.078-.456.195-.979t.228-1a4.5,4.5,0,0,1,.757-1.642,3.277,3.277,0,0,1,1.3-1.024,4.506,4.506,0,0,1,1.854-.35,4.723,4.723,0,0,1,1.325.177,2.883,2.883,0,0,1,1.041.529,2.059,2.059,0,0,1,.624.846,2.011,2.011,0,0,1,.071,1.13.3.3,0,0,1-.1.166.243.243,0,0,1-.173.067H434.7a.335.335,0,0,1-.217-.06.357.357,0,0,1-.1-.23.9.9,0,0,0-.3-.8,1.389,1.389,0,0,0-.824-.223,1.694,1.694,0,0,0-1.058.341,1.923,1.923,0,0,0-.634,1.13q-.235.913-.4,1.87a1.388,1.388,0,0,0,.133,1.13,1.087,1.087,0,0,0,.891.341,1.906,1.906,0,0,0,.924-.223,1.659,1.659,0,0,0,.68-.8.646.646,0,0,1,.177-.228.406.406,0,0,1,.235-.062h1.513a.19.19,0,0,1,.157.068.187.187,0,0,1,.033.166,3.6,3.6,0,0,1-.485,1.119,3.192,3.192,0,0,1-.824.846,3.7,3.7,0,0,1-1.13.534A5.14,5.14,0,0,1,432.047,157.482Z" transform="translate(-384.913 -147.295)" fill="#fff"/>
      <path id="Trazado_46" data-name="Trazado 46" d="M433.493,157.33a.2.2,0,0,1-.19-.111.222.222,0,0,1,.011-.223l4.131-7.148a.716.716,0,0,1,.189-.217.5.5,0,0,1,.312-.094h1.715a.35.35,0,0,1,.273.094.381.381,0,0,1,.1.217L441.12,157a.251.251,0,0,1-.057.246.276.276,0,0,1-.2.089h-1.347a.319.319,0,0,1-.239-.078.372.372,0,0,1-.1-.179l-.19-1.112h-2.973l-.667,1.135a.86.86,0,0,1-.151.157.408.408,0,0,1-.261.078Zm3.318-2.973h2.069l-.412-2.939Z" transform="translate(-382.43 -147.254)" fill="#fff"/>
      <path id="Trazado_47" data-name="Trazado 47" d="M441.723,157.33a.222.222,0,0,1-.184-.078.243.243,0,0,1-.04-.2l.5-2.393-1.569-4.765a.244.244,0,0,1,.044-.246.281.281,0,0,1,.233-.111h1.3a.317.317,0,0,1,.25.082.462.462,0,0,1,.1.151l.979,2.862,2.193-2.862a.72.72,0,0,1,.157-.151.451.451,0,0,1,.279-.082h1.5c.111,0,.176.041.195.122a.267.267,0,0,1-.06.235l-3.6,4.765-.512,2.393a.332.332,0,0,1-.117.2.337.337,0,0,1-.217.078Z" transform="translate(-378.257 -147.254)" fill="#fff"/>
      <path id="Trazado_48" data-name="Trazado 48" d="M448.936,157.482a4.528,4.528,0,0,1-1.821-.312,2.106,2.106,0,0,1-1.013-.829,1.615,1.615,0,0,1-.217-1.1.343.343,0,0,1,.1-.162.234.234,0,0,1,.173-.071h1.425a.362.362,0,0,1,.223.054.939.939,0,0,1,.133.146.821.821,0,0,0,.177.323.94.94,0,0,0,.374.25,1.643,1.643,0,0,0,.594.1,2.283,2.283,0,0,0,1.036-.2.781.781,0,0,0,.456-.545.406.406,0,0,0-.084-.407,1.309,1.309,0,0,0-.523-.29,9.689,9.689,0,0,0-1-.261,4.414,4.414,0,0,1-1.336-.494,1.723,1.723,0,0,1-.729-.813,1.984,1.984,0,0,1-.062-1.185,2.553,2.553,0,0,1,1.1-1.621,4,4,0,0,1,2.282-.594,3.835,3.835,0,0,1,1.287.2,2.854,2.854,0,0,1,.94.534,2.132,2.132,0,0,1,.547.707,1.289,1.289,0,0,1,.111.73.276.276,0,0,1-.089.162.26.26,0,0,1-.179.071h-1.491a.4.4,0,0,1-.195-.044.351.351,0,0,1-.139-.144.527.527,0,0,0-.255-.429,1.15,1.15,0,0,0-.68-.184,1.7,1.7,0,0,0-.8.173.759.759,0,0,0-.4.529.449.449,0,0,0,.062.39.913.913,0,0,0,.445.288,7.421,7.421,0,0,0,.906.257,5.134,5.134,0,0,1,1.537.507,1.643,1.643,0,0,1,.751.8,2,2,0,0,1,.051,1.169,2.576,2.576,0,0,1-1.187,1.719A4.712,4.712,0,0,1,448.936,157.482Z" transform="translate(-375.072 -147.295)" fill="#fff"/>
      <path id="Trazado_49" data-name="Trazado 49" d="M450.8,157.33a.228.228,0,0,1-.179-.078.234.234,0,0,1-.044-.2l1.537-7.237a.317.317,0,0,1,.122-.2.337.337,0,0,1,.211-.078h5.2a.22.22,0,0,1,.184.078.24.24,0,0,1,.038.2l-.211,1.047a.379.379,0,0,1-.128.2.334.334,0,0,1-.217.079h-3.551l-.323,1.5h3.3a.225.225,0,0,1,.189.084.246.246,0,0,1,.044.206l-.211.968a.36.36,0,0,1-.117.195.322.322,0,0,1-.217.084h-3.307l-.323,1.547h3.63a.224.224,0,0,1,.184.078.237.237,0,0,1,.038.2l-.222,1.046a.332.332,0,0,1-.117.2.337.337,0,0,1-.217.078Z" transform="translate(-372.323 -147.254)" fill="#fff"/>
      <path id="Trazado_50" data-name="Trazado 50" d="M455.378,157.33a.22.22,0,0,1-.184-.078.243.243,0,0,1-.04-.2l1.537-7.237a.318.318,0,0,1,.122-.2.351.351,0,0,1,.222-.078h3.03a2.949,2.949,0,0,1,2.12.662,1.9,1.9,0,0,1,.428,1.876,2.814,2.814,0,0,1-.661,1.336,3.231,3.231,0,0,1-1.176.824l.948,2.738a.215.215,0,0,1,.009.055.333.333,0,0,1-.009.067.247.247,0,0,1-.1.162.289.289,0,0,1-.189.073h-1.47a.319.319,0,0,1-.284-.106,1.007,1.007,0,0,1-.106-.195l-.745-2.448h-1.147l-.523,2.47a.319.319,0,0,1-.124.2.36.36,0,0,1-.222.078Zm2.638-4.32h1.291a1.273,1.273,0,0,0,.835-.257,1.223,1.223,0,0,0,.412-.7.732.732,0,0,0-.846-.968h-1.28Z" transform="translate(-369.645 -147.254)" fill="#fff"/>
      <path id="Trazado_51" data-name="Trazado 51" d="M461.52,157.33a.37.37,0,0,1-.284-.1.381.381,0,0,1-.106-.234l-.758-7.159a.254.254,0,0,1,.268-.3h1.336a.319.319,0,0,1,.257.094.386.386,0,0,1,.089.195l.479,5.145,2.672-5.145a.575.575,0,0,1,.157-.195.432.432,0,0,1,.288-.094h1.493a.164.164,0,0,1,.173.106.291.291,0,0,1-.017.228L463.779,157a.685.685,0,0,1-.195.234.519.519,0,0,1-.328.1Z" transform="translate(-366.592 -147.254)" fill="#fff"/>
      <path id="Trazado_52" data-name="Trazado 52" d="M464.83,157.33a.239.239,0,0,1-.189-.078.228.228,0,0,1-.044-.2l1.547-7.237a.32.32,0,0,1,.124-.2.334.334,0,0,1,.211-.078h1.5a.222.222,0,0,1,.177.078.231.231,0,0,1,.044.2l-1.548,7.237a.335.335,0,0,1-.322.279Z" transform="translate(-364.124 -147.254)" fill="#fff"/>
      <path id="Trazado_53" data-name="Trazado 53" d="M470.064,157.482a4.6,4.6,0,0,1-1.364-.189,2.516,2.516,0,0,1-1.008-.574,2.042,2.042,0,0,1-.556-.946,3.029,3.029,0,0,1-.033-1.309q.078-.456.195-.979t.228-1a4.5,4.5,0,0,1,.757-1.642,3.276,3.276,0,0,1,1.3-1.024,4.507,4.507,0,0,1,1.854-.35,4.723,4.723,0,0,1,1.325.177,2.884,2.884,0,0,1,1.041.529,2.06,2.06,0,0,1,.624.846,2.011,2.011,0,0,1,.071,1.13.3.3,0,0,1-.1.166.243.243,0,0,1-.173.067h-1.513a.334.334,0,0,1-.217-.06.365.365,0,0,1-.1-.23.894.894,0,0,0-.3-.8,1.389,1.389,0,0,0-.824-.223,1.694,1.694,0,0,0-1.059.341,1.923,1.923,0,0,0-.634,1.13q-.235.913-.4,1.87a1.389,1.389,0,0,0,.133,1.13,1.087,1.087,0,0,0,.89.341,1.907,1.907,0,0,0,.924-.223,1.659,1.659,0,0,0,.68-.8.645.645,0,0,1,.177-.228.406.406,0,0,1,.234-.062h1.513a.19.19,0,0,1,.157.068.187.187,0,0,1,.033.166,3.6,3.6,0,0,1-.485,1.119,3.2,3.2,0,0,1-.824.846,3.7,3.7,0,0,1-1.13.534A5.14,5.14,0,0,1,470.064,157.482Z" transform="translate(-362.689 -147.295)" fill="#fff"/>
      <path id="Trazado_54" data-name="Trazado 54" d="M472.032,157.33a.242.242,0,0,1-.19-.078.233.233,0,0,1-.044-.2l1.548-7.237a.318.318,0,0,1,.122-.2.338.338,0,0,1,.212-.078h1.5a.223.223,0,0,1,.179.078.231.231,0,0,1,.044.2l-1.548,7.237a.325.325,0,0,1-.117.2.321.321,0,0,1-.206.078Z" transform="translate(-359.914 -147.254)" fill="#fff"/>
      <path id="Trazado_55" data-name="Trazado 55" d="M477.252,157.482a4.35,4.35,0,0,1-1.3-.189,2.653,2.653,0,0,1-1.013-.567,2.1,2.1,0,0,1-.585-.948,2.935,2.935,0,0,1-.051-1.325c.06-.319.125-.639.195-.957s.143-.642.217-.968a4.092,4.092,0,0,1,1.325-2.283,3.973,3.973,0,0,1,2.583-.778,4.189,4.189,0,0,1,1.3.193,2.687,2.687,0,0,1,1.014.585,2.147,2.147,0,0,1,.589.959,2.838,2.838,0,0,1,.04,1.325c-.052.326-.114.648-.185.968s-.143.639-.217.957a4,4,0,0,1-1.336,2.277A4.057,4.057,0,0,1,477.252,157.482Zm.146-1.6a1.677,1.677,0,0,0,1.057-.357,1.979,1.979,0,0,0,.646-1.136q.121-.49.217-.924c.062-.29.12-.591.171-.9a1.419,1.419,0,0,0-.133-1.136,1.046,1.046,0,0,0-.879-.357,1.648,1.648,0,0,0-1.052.357,2,2,0,0,0-.64,1.136c-.081.311-.154.612-.217.9s-.124.6-.184.924a1.479,1.479,0,0,0,.135,1.136A1.031,1.031,0,0,0,477.4,155.88Z" transform="translate(-358.477 -147.295)" fill="#fff"/>
      <path id="Trazado_56" data-name="Trazado 56" d="M482.1,157.482a4.528,4.528,0,0,1-1.821-.312,2.107,2.107,0,0,1-1.013-.829,1.606,1.606,0,0,1-.217-1.1.342.342,0,0,1,.1-.162.234.234,0,0,1,.173-.071h1.424a.362.362,0,0,1,.223.054.939.939,0,0,1,.133.146.821.821,0,0,0,.178.323.945.945,0,0,0,.372.25,1.659,1.659,0,0,0,.6.1,2.283,2.283,0,0,0,1.036-.2.781.781,0,0,0,.456-.545.406.406,0,0,0-.084-.407,1.309,1.309,0,0,0-.523-.29,9.678,9.678,0,0,0-1-.261,4.414,4.414,0,0,1-1.336-.494,1.723,1.723,0,0,1-.729-.813,1.984,1.984,0,0,1-.062-1.185,2.552,2.552,0,0,1,1.1-1.621,4,4,0,0,1,2.282-.594,3.836,3.836,0,0,1,1.287.2,2.854,2.854,0,0,1,.94.534,2.134,2.134,0,0,1,.547.707,1.289,1.289,0,0,1,.111.73.277.277,0,0,1-.089.162.26.26,0,0,1-.179.071h-1.491a.4.4,0,0,1-.195-.044.351.351,0,0,1-.139-.144.525.525,0,0,0-.257-.429,1.142,1.142,0,0,0-.678-.184,1.7,1.7,0,0,0-.8.173.76.76,0,0,0-.4.529.449.449,0,0,0,.062.39.913.913,0,0,0,.445.288,7.431,7.431,0,0,0,.906.257,5.131,5.131,0,0,1,1.537.507,1.643,1.643,0,0,1,.751.8,2,2,0,0,1,.051,1.169,2.576,2.576,0,0,1-1.187,1.719A4.716,4.716,0,0,1,482.1,157.482Z" transform="translate(-355.685 -147.295)" fill="#fff"/>
    </g>
    <g id="Grupo_17" data-name="Grupo 17" transform="translate(358.15 126.273)">
      <path id="Trazado_57" data-name="Trazado 57" d="M445.329,155.644a20.549,20.549,0,0,1-5.2-.634,11.371,11.371,0,0,1-4.161-1.978,7.468,7.468,0,0,1-2.489-3.426,9.917,9.917,0,0,1-.265-5.018q.285-1.671.713-3.589t.838-3.672a15.775,15.775,0,0,1,3.017-6.242,12.294,12.294,0,0,1,5.1-3.63,19.5,19.5,0,0,1,7.056-1.182,20.57,20.57,0,0,1,4.874.591,13.275,13.275,0,0,1,4.305,1.856,8.006,8.006,0,0,1,2.814,3.244,7.424,7.424,0,0,1,.368,4.752,1.114,1.114,0,0,1-.407.632,1.083,1.083,0,0,1-.694.265h-8.322a1.2,1.2,0,0,1-.9-.265,1.875,1.875,0,0,1-.366-.917,2.343,2.343,0,0,0-.838-1.756,3.077,3.077,0,0,0-1.734-.447,3.754,3.754,0,0,0-2.3.713,4.384,4.384,0,0,0-1.407,2.591q-.858,3.344-1.469,6.853a3.075,3.075,0,0,0,.326,2.589,2.575,2.575,0,0,0,2,.715,3.716,3.716,0,0,0,3.507-2.2,2.542,2.542,0,0,1,.734-.938,1.832,1.832,0,0,1,1.022-.246h8.321a.738.738,0,0,1,.591.265.692.692,0,0,1,.143.634,13.386,13.386,0,0,1-2.06,4.751,11.962,11.962,0,0,1-3.426,3.244,14.975,14.975,0,0,1-4.467,1.856A22.163,22.163,0,0,1,445.329,155.644Z" transform="translate(-314.381 -126.273)" fill="#fff"/>
      <path id="Trazado_58" data-name="Trazado 58" d="M450.124,155.084a.684.684,0,0,1-.653-.388.761.761,0,0,1,.04-.794l14.605-26.025a3.258,3.258,0,0,1,.773-.9,2.022,2.022,0,0,1,1.348-.448h9.054a1.386,1.386,0,0,1,1.163.448,1.743,1.743,0,0,1,.388.9l3.588,26.025a.885.885,0,0,1-.284.856,1.2,1.2,0,0,1-.816.326h-7.343a1.32,1.32,0,0,1-1.06-.347,1.34,1.34,0,0,1-.326-.672l-.409-2.694h-8.771l-1.55,2.694a3.244,3.244,0,0,1-.591.672,1.767,1.767,0,0,1-1.2.347Zm15.052-11.666h4.61l-.693-7.589Z" transform="translate(-304.819 -126.123)" fill="#fff"/>
      <path id="Trazado_59" data-name="Trazado 59" d="M470.955,155.084a.811.811,0,0,1-.693-.326.948.948,0,0,1-.163-.775l5.589-26.352a1.274,1.274,0,0,1,.49-.775,1.35,1.35,0,0,1,.856-.326h12.075q5.876,0,8.608,2.653t1.753,7.261a10.767,10.767,0,0,1-2.242,4.752,13.8,13.8,0,0,1-3.835,3.242l3.019,9.3c.027.081.048.149.062.2a.576.576,0,0,1-.022.246,1.117,1.117,0,0,1-.406.632,1.1,1.1,0,0,1-.694.265h-8.363a1.318,1.318,0,0,1-1.12-.407,2.287,2.287,0,0,1-.388-.694l-1.835-7.791H481.97l-1.672,7.791a1.278,1.278,0,0,1-.49.775,1.349,1.349,0,0,1-.857.326ZM483.6,138.441h2.977a2.062,2.062,0,0,0,1.55-.632,2.865,2.865,0,0,0,.776-1.448,2.649,2.649,0,0,0-.124-1.529,1.244,1.244,0,0,0-1.306-.713H484.5Z" transform="translate(-292.717 -126.123)" fill="#fff"/>
      <path id="Trazado_60" data-name="Trazado 60" d="M500.825,155.644a16.943,16.943,0,0,1-6.874-1.225,7.573,7.573,0,0,1-3.938-3.711,10.407,10.407,0,0,1-.529-6.283q.285-1.671.715-3.63t.835-3.711a13.133,13.133,0,0,1,3.161-6.017,14.281,14.281,0,0,1,5.568-3.591,21.217,21.217,0,0,1,7.3-1.2,20.047,20.047,0,0,1,5.649.715,11.208,11.208,0,0,1,3.979,1.978,6.964,6.964,0,0,1,2.18,2.917,6.415,6.415,0,0,1,.307,3.486,1.12,1.12,0,0,1-.409.632,1.078,1.078,0,0,1-.693.266h-9.016a1.565,1.565,0,0,1-.693-.124,1.179,1.179,0,0,1-.407-.326,5.7,5.7,0,0,0-.307-.591,2.02,2.02,0,0,0-.734-.693,3.032,3.032,0,0,0-1.531-.306,3.862,3.862,0,0,0-2.467.754,3.99,3.99,0,0,0-1.326,2.3q-.406,1.673-.773,3.426t-.7,3.51a3.183,3.183,0,0,0,.369,2.651,2.737,2.737,0,0,0,2.2.816,5.678,5.678,0,0,0,1.856-.287,3.353,3.353,0,0,0,1.428-.938,3.443,3.443,0,0,0,.8-1.672v-.041h-1.917a.871.871,0,0,1-.715-.326.815.815,0,0,1-.141-.775l.938-4.527a1.265,1.265,0,0,1,.49-.775,1.342,1.342,0,0,1,.856-.326h11.217a.814.814,0,0,1,.694.326.953.953,0,0,1,.163.775l-1.1,5.3a12.562,12.562,0,0,1-3.12,6.161,15.092,15.092,0,0,1-5.773,3.771A21.324,21.324,0,0,1,500.825,155.644Z" transform="translate(-281.509 -126.273)" fill="#fff"/>
      <path id="Trazado_61" data-name="Trazado 61" d="M520.53,155.644a18.116,18.116,0,0,1-5.079-.694,11.784,11.784,0,0,1-4.12-2.081,8.06,8.06,0,0,1-2.529-3.447,9.091,9.091,0,0,1-.347-4.793q.285-1.671.7-3.549t.816-3.63a14.9,14.9,0,0,1,4.955-8.261q3.61-2.914,10.218-2.916a17.163,17.163,0,0,1,5.079.734,11.894,11.894,0,0,1,4.12,2.163,8.354,8.354,0,0,1,2.531,3.507,9.053,9.053,0,0,1,.345,4.773q-.285,1.754-.693,3.63t-.816,3.549a14.5,14.5,0,0,1-4.977,8.24Q527.137,155.643,520.53,155.644Zm.9-7.955a3.57,3.57,0,0,0,2.325-.8,4.439,4.439,0,0,0,1.386-2.508q.449-1.754.816-3.469t.653-3.385a2.96,2.96,0,0,0-.345-2.508,2.448,2.448,0,0,0-1.979-.8,3.515,3.515,0,0,0-2.285.8,4.6,4.6,0,0,0-1.426,2.508q-.409,1.673-.776,3.385t-.693,3.469a3.155,3.155,0,0,0,.345,2.508A2.373,2.373,0,0,0,521.429,147.689Z" transform="translate(-270.377 -126.273)" fill="#fff"/>
      <g id="Grupo_16" data-name="Grupo 16" transform="translate(0 0.407)">
        <g id="Grupo_15" data-name="Grupo 15">
          <g id="Grupo_9" data-name="Grupo 9">
            <path id="Trazado_62" data-name="Trazado 62" d="M390.179,137.952H379.326l.653-3.019h11.667a1.269,1.269,0,0,0,.837-.326,1.3,1.3,0,0,0,.469-.775l1.347-6.2a.914.914,0,0,0-.185-.775.87.87,0,0,0-.713-.326H372.842a1.27,1.27,0,0,0-.835.326,1.309,1.309,0,0,0-.471.775l-.558,2.61-8.073.03a.914.914,0,0,0-.6.217.931.931,0,0,0-.322.555l-.631,3.08a.608.608,0,0,0,.09.567.639.639,0,0,0,.525.231l4.534-.017v-.021l3.486,0-.65,3.039-7.942.03a.932.932,0,0,0-.921.772l-.632,3.08a.6.6,0,0,0,.092.567.634.634,0,0,0,.524.231l4.534-.017v-.021l3.355,0-.791,3.7-7.817.016a.925.925,0,0,0-.6.216.94.94,0,0,0-.322.555l-.637,3.08a.6.6,0,0,0,.092.567.633.633,0,0,0,.523.231l4.534-.01v-.021l3.237,0-.661,3.088a.912.912,0,0,0,.185.775.866.866,0,0,0,.713.326H374.6a1.265,1.265,0,0,0,.835-.326,1.3,1.3,0,0,0,.471-.775l1.632-7.669h10.85a1.341,1.341,0,0,0,.856-.326,1.258,1.258,0,0,0,.49-.773l1.306-6.161a.956.956,0,0,0-.163-.775A.815.815,0,0,0,390.179,137.952Z" transform="translate(-358.15 -126.53)" fill="#e8521c"/>
          </g>
          <g id="Grupo_10" data-name="Grupo 10" transform="translate(33)">
            <path id="Trazado_63" data-name="Trazado 63" d="M402.818,147.13H390.253l.532-2.569h11.339a1.354,1.354,0,0,0,.856-.326,1.268,1.268,0,0,0,.49-.776l1.143-5.3a.917.917,0,0,0-.184-.775.874.874,0,0,0-.713-.326H392.375l.572-2.57h12.238a1.268,1.268,0,0,0,.835-.326,1.518,1.518,0,0,0,.51-.775l1.223-5.752a.919.919,0,0,0-.184-.775.874.874,0,0,0-.713-.326H385.931a1.27,1.27,0,0,0-.835.326,1.309,1.309,0,0,0-.471.775l-5.63,26.352a.912.912,0,0,0,.185.775.866.866,0,0,0,.713.326h21.253a1.269,1.269,0,0,0,.837-.326,1.312,1.312,0,0,0,.469-.775l1.223-5.752a.95.95,0,0,0-.163-.775A.818.818,0,0,0,402.818,147.13Z" transform="translate(-378.976 -126.53)" fill="#e8521c"/>
          </g>
          <g id="Grupo_12" data-name="Grupo 12" transform="translate(58.603)">
            <g id="Grupo_11" data-name="Grupo 11">
              <path id="Trazado_64" data-name="Trazado 64" d="M422.282,141.2a10.783,10.783,0,0,0,2.242-4.752q.979-4.609-1.754-7.261t-8.606-2.653H402.089a1.347,1.347,0,0,0-.856.326,1.266,1.266,0,0,0-.49.775l-5.589,26.352a.942.942,0,0,0,.163.775.811.811,0,0,0,.693.326H404a1.353,1.353,0,0,0,.859-.326,1.279,1.279,0,0,0,.49-.775l1.672-7.791H408.7l1.837,7.791a2.309,2.309,0,0,0,.387.694,1.323,1.323,0,0,0,1.122.407h8.364a1.088,1.088,0,0,0,.693-.265,1.119,1.119,0,0,0,.407-.632.544.544,0,0,0,.021-.246c-.013-.054-.033-.122-.06-.2l-3.019-9.3A13.8,13.8,0,0,0,422.282,141.2Zm-8.322-4.835a2.861,2.861,0,0,1-.775,1.448,2.062,2.062,0,0,1-1.55.632h-2.977l.9-4.323h2.977a1.245,1.245,0,0,1,1.306.713A2.65,2.65,0,0,1,413.959,136.361Z" transform="translate(-395.133 -126.53)" fill="#e8521c"/>
            </g>
          </g>
          <g id="Grupo_14" data-name="Grupo 14" transform="translate(86.191 0.062)">
            <g id="Grupo_13" data-name="Grupo 13">
              <path id="Trazado_65" data-name="Trazado 65" d="M443.6,153.941l-3.589-26.027a1.754,1.754,0,0,0-.387-.9,1.391,1.391,0,0,0-1.165-.448H429.4a2.018,2.018,0,0,0-1.347.448,3.276,3.276,0,0,0-.773.9l-14.605,26.027a.761.761,0,0,0-.041.794.684.684,0,0,0,.653.388h7.955a1.772,1.772,0,0,0,1.2-.347,3.294,3.294,0,0,0,.591-.672l1.55-2.694h8.769l.409,2.694a1.353,1.353,0,0,0,.326.672,1.321,1.321,0,0,0,1.06.347H442.5a1.206,1.206,0,0,0,.816-.326A.89.89,0,0,0,443.6,153.941Zm-15.257-10.485,3.917-7.587.694,7.587Z" transform="translate(-412.543 -126.569)" fill="#e8521c"/>
            </g>
          </g>
        </g>
      </g>
    </g>
  </g>
</svg>
