<svg xmlns="http://www.w3.org/2000/svg" width="79.133" height="45.647" viewBox="0 0 79.133 45.647">
  <g id="noun_unity_1289745" transform="translate(0.363 0.334)">
    <path id="Trazado_122" data-name="Trazado 122" d="M82.352,45.966,77.061,26.083a3.227,3.227,0,0,0-4.011-2.3l-6.827,1.877a3.227,3.227,0,0,0-2.3,4.011v.171l-3.243.853a2.992,2.992,0,0,0-1.195-.512c-10.07-2.816-10.24-2.816-10.411-2.816h0c-.256,0-2.9-.171-6.827-.427a5.252,5.252,0,0,0-1.621.171l-2.3.768a.443.443,0,0,0-.341-.171l-1.024-.341h-.085a26.508,26.508,0,0,0-10.326,1.024l-4.011,1.28v-.085a3.375,3.375,0,0,0-2.3-4.011L13.4,23.778a3.375,3.375,0,0,0-4.011,2.3L4.183,45.966a3.375,3.375,0,0,0,2.3,4.011h0L13.4,51.769a2.9,2.9,0,0,0,.853.085,3.53,3.53,0,0,0,1.621-.427A3.2,3.2,0,0,0,16.984,50.4l2.731,2.048c.085.085.171.085.341.171a4.533,4.533,0,0,0,1.365,5.291,4.264,4.264,0,0,0,2.645.853,1.879,1.879,0,0,0,.683-.085h.171a3.232,3.232,0,0,0,0,1.28,4.324,4.324,0,0,0,4.352,3.755,5.037,5.037,0,0,0,1.195-.171,4.8,4.8,0,0,0,2.048,2.816,4.134,4.134,0,0,0,2.219.6,3.992,3.992,0,0,0,2.389-.768A4.64,4.64,0,0,0,39,68.154a4.288,4.288,0,0,0,2.048.512,7.47,7.47,0,0,0,1.365-.171,4.378,4.378,0,0,0,1.963-1.28l1.109.6h.085a5.062,5.062,0,0,0,1.963.427,4.866,4.866,0,0,0,1.109-.085,5.075,5.075,0,0,0,3.328-2.56v-.085a4.866,4.866,0,0,0,1.109-.085,5.953,5.953,0,0,0,3.669-2.389h0a1.866,1.866,0,0,0,.256-.427h.512a5.076,5.076,0,0,0,2.731-.768,5.314,5.314,0,0,0,2.389-3.755L63.151,58a3.773,3.773,0,0,0,3.243-3.755,4.13,4.13,0,0,0-.853-2.475l.6-1.195,3.072-.683a3.2,3.2,0,0,0,1.365,1.621,3.828,3.828,0,0,0,1.621.427,2.9,2.9,0,0,0,.853-.085l6.912-1.792A3.347,3.347,0,0,0,82.352,45.966ZM15.7,49.038a1.23,1.23,0,0,1-.768.939,1.877,1.877,0,0,1-1.195.171L6.829,48.355h0a1.53,1.53,0,0,1-1.109-1.877L11.01,26.595A1.639,1.639,0,0,1,12.546,25.4a.769.769,0,0,1,.427.085l6.912,1.792a1.53,1.53,0,0,1,1.109,1.877Zm8.7,7.936a2.667,2.667,0,0,1-2.475-4.267l.6-.853a2.676,2.676,0,0,1,4.438,2.987l-.939,1.28A2.533,2.533,0,0,1,24.408,56.974ZM30.894,60.3a4.2,4.2,0,0,0-.512,1.451,2.787,2.787,0,0,1-2.816-.256,2.428,2.428,0,0,1-1.024-1.792,2.55,2.55,0,0,1,.512-1.963l.341-.512.171-.171.6-.853c.085-.085.085-.171.171-.256L29.443,54.5a2.428,2.428,0,0,1,1.792-1.024,2.647,2.647,0,0,1,1.963.512,2.746,2.746,0,0,1,1.024,1.536,4.885,4.885,0,0,0-1.28,1.365Zm6.144,3.5a2.694,2.694,0,0,1-4.694-2.645l2.048-3.5a2.706,2.706,0,0,1,1.621-1.28,2.835,2.835,0,0,1,2.048.256A2.766,2.766,0,0,1,39.086,60.3Zm6.827.683-.512.939a2.7,2.7,0,0,1-3.669,1.195,2.666,2.666,0,0,1-1.365-1.792.084.084,0,0,1,.085-.085l2.048-3.5.256-.512a2.854,2.854,0,0,1,2.048.171,2.6,2.6,0,0,1,1.365,1.621A2.666,2.666,0,0,1,43.865,64.484Zm19.115-8.192-1.195.171a1.4,1.4,0,0,1-.853-.085L54.959,54.67a2.238,2.238,0,0,1-.768-.427L50.521,51a.847.847,0,0,0-1.109,1.28l3.669,3.243a4.744,4.744,0,0,0,1.451.768L60.506,58a1.082,1.082,0,0,0,.512.085A3.445,3.445,0,0,1,59.482,60.3a3.194,3.194,0,0,1-2.645.427l-4.608-.939a3.276,3.276,0,0,1-1.536-.768l-2.645-2.3A.847.847,0,0,0,46.937,58l2.645,2.3a5.956,5.956,0,0,0,2.3,1.195l3.328.768a3.888,3.888,0,0,1-2.475,1.451,4.574,4.574,0,0,1-2.389-.171l-2.3-.853a.864.864,0,1,0-.6,1.621l2.3.853a.513.513,0,0,0,.341.085,3.352,3.352,0,0,1-3.925,1.024l-.939-.512.171-.427a4.117,4.117,0,0,0,.256-3.328,4.252,4.252,0,0,0-2.133-2.56,4.974,4.974,0,0,0-2.475-.512,4.5,4.5,0,0,0-2.219-3.669,4.994,4.994,0,0,0-3.157-.512,4.981,4.981,0,0,0-1.536-2.219,4.477,4.477,0,0,0-3.243-.853,3.752,3.752,0,0,0-1.963.853,4.313,4.313,0,0,0-1.621-2.56,4.378,4.378,0,0,0-6.144.939l-.341.341c0-.085-.085-.085-.085-.171l-2.816-2.133c-.085-.085-.171-.085-.256-.171l4.523-17.153h0l5.035-1.621A23.11,23.11,0,0,1,35.246,28.9L30.553,30.52a3.662,3.662,0,0,0-2.3,2.048l-3.84,7.424a4.091,4.091,0,0,0-.256,3.157A4.344,4.344,0,0,0,26.2,45.539a4.651,4.651,0,0,0,1.877.427,4.832,4.832,0,0,0,1.536-.256l4.608-1.877a3.989,3.989,0,0,0,2.048-1.877l1.28-2.3c.085-.171.171-.427.256-.6h.085l4.95-.512a2.165,2.165,0,0,1,1.024.171l8.107,3.413a1.858,1.858,0,0,1,.683.427l7.083,7.168a3.065,3.065,0,0,0,.853.6L63.919,52.2a2.006,2.006,0,0,1,1.024,1.792A2.478,2.478,0,0,1,62.981,56.292Zm3.925-7.68a7.469,7.469,0,0,0,.171-1.365.853.853,0,1,0-1.707,0,5.05,5.05,0,0,1-.6,2.475l-.512.939-2.987-1.707a.852.852,0,0,1-.427-.341l-7.083-7.168a3.376,3.376,0,0,0-1.28-.853l-8.107-3.413a3.3,3.3,0,0,0-1.792-.256l-4.608.427V36.92l-.085-.6a.87.87,0,1,0-1.707.341l.085.6a2.726,2.726,0,0,1-.256,1.621l-1.28,2.3A2.517,2.517,0,0,1,33.539,42.3l-4.608,1.877a2.254,2.254,0,0,1-1.963-.085,2.072,2.072,0,0,1-1.195-1.451,2.418,2.418,0,0,1,.171-1.877l3.669-7.424a2.112,2.112,0,0,1,1.365-1.195l10.24-3.5a1.774,1.774,0,0,1,.939-.085c4.011.256,6.315.427,6.827.427.512.085,4.438,1.195,10.07,2.731a3.032,3.032,0,0,1,1.365.939L61.444,34.1a.765.765,0,0,0,1.195.171.773.773,0,0,0,.171-1.195l-.768-1.024,2.3-.683,4.438,16.811Zm12.715-.256h0l-6.912,1.792a1.452,1.452,0,0,1-1.195-.171,1.717,1.717,0,0,1-.768-.939L65.455,29.155a1.461,1.461,0,0,1,1.109-1.877l6.912-1.792c.171,0,.256-.085.427-.085a1.543,1.543,0,0,1,1.536,1.195l5.291,19.883A1.53,1.53,0,0,1,79.621,48.355Z" transform="translate(-4.087 -23.653)" fill="#e8521c" stroke="#e8521c" stroke-width="0.6"/>
  </g>
</svg>
